<?xml version="1.0" encoding="utf-8"?>
<!-- Generator: Adobe Illustrator 17.0.0, SVG Export Plug-In . SVG Version: 6.00 Build 0)  -->
<!DOCTYPE svg PUBLIC "-//W3C//DTD SVG 1.1//EN" "http://www.w3.org/Graphics/SVG/1.1/DTD/svg11.dtd">
<svg version="1.1" id="Layer_1" xmlns="http://www.w3.org/2000/svg" xmlns:xlink="http://www.w3.org/1999/xlink" x="0px" y="0px"
	 width="2000px" height="2000px" viewBox="0 0 2000 2000" enable-background="new 0 0 2000 2000" xml:space="preserve">
<g>
	<g>
		<path fill="#008A94" d="M508.435,865.891c3.224,0,3.224-5,0-5S505.21,865.891,508.435,865.891L508.435,865.891z"/>
	</g>
</g>
<g>
	<g>
		<path fill="#3558BA" d="M473.652,718.717c32.477,3.009,55.8,26.456,70.976,53.902c17.683,31.98,25.979,69.012,30.913,104.928
			c4.234,30.822,4.505,61.643,3.535,92.662c-1.035,33.099-5.8,66.117-8.79,99.073c-3.573,39.387-6.295,79.222-3.267,118.738
			c2.372,30.953,7.95,66.616,30.421,89.936c3.425,3.555,7.396,6.659,11.557,9.302c2.079,1.321,5.511,1.487,7.571,0
			c33.495-24.172,60.657-55.542,80.414-91.787c19.815-36.35,31.948-76.542,38.926-117.218c14.682-85.583,8.004-173.98-7.012-259.029
			c-6.803-38.527-15.669-76.694-26.272-114.349c-2.329-8.272-14.483-6.428-14.732,1.994
			c-3.718,125.776,34.669,248.008,35.824,373.492c0.231,25.098-2.176,49.962-3.36,74.993c-0.809,17.091-0.937,35.13,4.645,51.518
			c12.046,35.362,53.023,45.694,86.768,41.449c62.094-7.811,108.738-61.327,137.999-112.663
			c15.826-27.766,28.109-57.93,35.554-89.028c6.271-26.193,9.47-54.227,3.925-80.841c-4.518-21.68-16.809-40.644-37.749-49.211
			c-21.311-8.719-47.278-4.666-65.238,9.311c-18.535,14.425-27.088,39.044-31.046,61.342c-5.339,30.08-3.709,60.972,0.744,91.046
			c4.831,32.624,13.807,64.743,26.459,95.193c11.942,28.739,27.187,56.472,48.065,79.74c16.849,18.779,39.008,35.063,64.517,38.814
			c25.392,3.734,51.183-4.135,72.186-18.33c23.79-16.079,42.155-39.142,57.183-63.319c17.842-28.704,31.232-60.164,42.324-92.016
			c23.575-67.696,36.958-139.654,41.327-211.146c1.465-23.977,1.753-48.086,0.029-72.057c-1.362-18.944-3.786-38.268-9.772-56.369
			c-2.22-6.712-12.673-7.593-14.464,0c-12.176,51.612-14.336,105.384-14.398,158.215c-0.063,53.773,2.986,107.472,5.434,161.17
			c1.914,41.981,5.011,85.488,19.375,125.346c10.103,28.036,30.141,58.859,64.126,55.11c20.002-2.206,37.441-13.791,52.735-26.122
			c16.054-12.943,30.28-28.022,42.796-44.372c22.411-29.277,40.902-61.83,56.911-94.975c17.621-36.484,32.889-75.303,39.078-115.532
			c4.767-30.983,3.996-64.868-16.551-90.33c-6.129-7.595-15.133-12.967-23.794-17.177c-11.837-5.754-24.461-9.826-37.167-13.158
			c-32.443-8.508-66.185-12.382-99.572-14.772c-36.69-2.627-73.588-2.924-110.322-1.071c-31.685,1.599-63.698,4.611-94.662,11.757
			c-16.228,3.745-34.566,8.595-47.276,19.994c-7.216,6.471,3.429,17.044,10.607,10.607c0.437-0.392,2.685-2.195,0.72-0.683
			c0.706-0.543,1.439-1.05,2.179-1.547c1.767-1.187,3.628-2.231,5.515-3.213c0.954-0.497,1.925-0.962,2.898-1.418
			c0.491-0.23,3.62-1.583,1.86-0.847c2.472-1.034,4.99-1.956,7.523-2.828c11.96-4.118,24.411-6.806,36.843-9.037
			c32.243-5.785,65.628-7.928,98.717-8.7c36.732-0.857,73.578,0.383,110.133,4.13c30.436,3.119,61.342,7.86,90.324,17.977
			c6.319,2.206,9.577,3.523,15.297,6.344c4.515,2.227,8.875,4.787,12.923,7.784c1.513,1.121-1.248-0.996,0.2,0.161
			c0.414,0.331,0.818,0.673,1.222,1.016c0.781,0.663,1.532,1.362,2.269,2.074c0.706,0.682,1.376,1.399,2.031,2.129
			c0.317,0.354,0.621,0.72,0.924,1.085c0.852,1.028-0.989-1.374,0.23,0.322c3.731,5.191,7.132,11.04,9.12,16.401
			c11.754,31.702,3.106,69.394-6.404,100.867c-11.85,39.218-29.63,76.673-50.025,112.122
			c-18.113,31.483-37.742,60.289-64.364,84.927c-14.478,13.399-31.605,26.903-51.429,30.815
			c-12.029,2.374-23.115-1.743-31.91-10.499c-10.628-10.58-17.04-26.075-21.723-40.61c-6.204-19.258-9.763-39.401-12.216-59.45
			c-2.757-22.53-3.684-45.159-4.755-67.812c-1.247-26.376-2.556-52.75-3.494-79.139c-1.963-55.237-2.603-110.818,3.1-165.867
			c1.993-19.236,4.993-38.378,9.435-57.207c-4.821,0-9.643,0-14.464,0c7.802,23.593,9.415,46.169,10.177,70.997
			c0.998,32.507-1.127,65.11-4.926,97.386c-8.262,70.201-24.744,141.33-53.685,206.022c-12.5,27.941-27.897,55.583-47.844,78.274
			c-16.7,18.998-36.38,34.172-60.31,40.124c-6.573,1.635-9.899,2.036-16.443,2.301c-6.569,0.266-11.344-0.088-16.563-1.159
			c-11.951-2.451-20.91-6.971-31.208-14.171c-21.769-15.221-38.859-39.535-51.998-63.623c-15.524-28.462-26.462-59.359-34.02-90.834
			c-7.277-30.306-11.228-61.267-9.849-92.528c1.052-23.843,5.315-48.813,19.243-68.291c0.363-0.508,0.74-1.006,1.116-1.503
			c-1.058,1.399,0.207-0.227,0.364-0.419c0.773-0.946,1.585-1.859,2.411-2.759c1.758-1.915,3.665-3.689,5.663-5.351
			c0.222-0.185,1.805-1.404,0.347-0.295c0.471-0.358,0.954-0.701,1.436-1.044c0.965-0.685,1.963-1.32,2.971-1.938
			c1.011-0.619,2.053-1.186,3.104-1.734c0.628-0.328,4.107-1.866,2.555-1.231c2.263-0.926,4.603-1.651,6.97-2.258
			c1.219-0.312,2.453-0.562,3.69-0.792c0.63-0.117,1.264-0.213,1.897-0.31c-1.863,0.284,0.914-0.086,1.245-0.118
			c2.865-0.28,5.761-0.311,8.637-0.247c1.387,0.031,2.771,0.12,4.154,0.231c0.672,0.054,1.342,0.128,2.011,0.202
			c1.252,0.139-0.794-0.142,1.262,0.195c2.48,0.406,4.924,1.005,7.328,1.734c1.152,0.35,2.285,0.759,3.41,1.188
			c1.872,0.715-1.433-0.646,0.388,0.151c0.712,0.311,1.41,0.652,2.106,0.997c2.049,1.016,4.003,2.215,5.88,3.518
			c0.464,0.322,0.916,0.661,1.368,0.999c-1.526-1.143-0.012,0.02,0.244,0.232c1.012,0.838,1.974,1.735,2.913,2.653
			c6.435,6.293,10.455,14.365,13.153,23.377c0.757,2.529,1.37,5.1,1.908,7.683c0.278,1.336,0.517,2.68,0.743,4.026
			c0.115,0.684,0.217,1.37,0.319,2.056c0.126,0.892,0.131,0.922,0.017,0.091c0.06,0.468,0.117,0.936,0.171,1.405
			c0.728,6.141,0.946,12.337,0.873,18.518c-0.168,14.175-1.909,26.361-4.811,40.034c-6.485,30.551-18.059,59.913-33.029,87.251
			c-15.107,27.588-34.046,53.333-57.606,74.299c-20.299,18.064-46.047,32.604-72.262,35.492c-16.976,1.87-36.19-0.153-51.307-8.508
			c-13.007-7.189-18.903-19.417-21.515-33.791c-3.151-17.341-1.3-36.207-0.07-53.848c1.983-28.449,2.828-56.723,1.453-85.231
			c-3.021-62.601-14.084-124.467-23.049-186.393c-7.62-52.635-13.528-105.701-11.953-158.967c-4.911,0.665-9.821,1.329-14.732,1.994
			c22.194,78.823,37.281,160.204,40.301,242.146c3.046,82.657-6.199,170.203-47.951,243.197
			c-17.931,31.348-42.194,58.944-71.512,80.1c2.524,0,5.047,0,7.571,0c-9.907-6.294-17.519-17.13-22.302-28.474
			c-6.246-14.814-9.382-30.958-11.207-46.865c-4.478-39.036-2.04-78.803,1.196-117.837c2.859-34.476,7.509-68.842,9.48-103.386
			c1.716-30.078,1.308-60.217-1.98-90.18c-4.108-37.425-11.98-74.853-27.561-109.289c-13.816-30.535-35.907-58.773-68.49-70.103
			c-7.11-2.472-14.573-3.763-22.052-4.456C464.018,702.825,464.105,717.833,473.652,718.717L473.652,718.717z"/>
	</g>
</g>
</svg>
